Initial length [mm],Final length [mm],Rupture force [N]
114.0,124.0,11.4
128.4,145.6,9.7
129.7,140.6,13.6
133.8,144.8,9.1
125.7,134.9,9.1
126.4,135.7,13.1
105.6,116.2,12.0
111.7,115.9,13.4
129.4,149.2,10.6
114.0,119.5,12.2
123.8,125.3,16.2
123.8,127.2,10.8
